User name;admin
Password;XiaomiNotRSXIX94#()
Access key ID;AKIA2PBVSQQVEXQP327U
Secret access key;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
Console login link;https://719519384618.signin.aws.amazon.com/console
Account ID;719519384618
;
;
;
;
